…
## Importing a file with `readr`

Any parsing problems are not just displayed as a warning, but actually available as a `tibble`.


```r
problems(challenge)
```

```
## # A tibble: 1,000 x 5
##      row col   expected       actual      file                             
##    <int> <chr> <chr>          <chr>       <chr>                            
##  1  1001 x     no trailing c… .238379750… '/Library/Frameworks/R.framework…
##  2  1002 x     no trailing c… .411679971… '/Library/Frameworks/R.framework…
##  3  1003 x     no trailing c… .746071676… '/Library/Frameworks/R.framework…
##  4  1004 x     no trailing c… .723450553… '/Library/Frameworks/R.framework…
##  5  1005 x     no trailing c… .614524137… '/Library/Frameworks/R.framework…
##  6  1006 x     no trailing c… .473980569… '/Library/Frameworks/R.framework…
##  7  1007 x     no trailing c… .578461039… '/Library/Frameworks/R.framework…
##  8  1008 x     no trailing c… .241593722… '/Library/Frameworks/R.framework…
##  9  1009 x     no trailing c… .114378662… '/Library/Frameworks/R.framework…
## 10  1010 x     no trailing c… .298344632… '/Library/Frameworks/R.framework…
## # … with 990 more rows
```
…
```
## [1] 0.2404618 0.5671286
```


## A `dplyr` example


```r
library(nycflights13)
flights
```

```
## # A tibble: 336,776 x 19
##     year month   day dep_time sched_dep_time dep_delay arr_time
##    <int> <int> <int>    <int>          <int>     <dbl>    <int>
##  1  2013     1     1      517            515         2      830
##  2  2013     1     1      533            529         4      850
##  3  2013     1     1      542            540         2      923
##  4  2013     1     1      544            545        -1     1004
##  5  2013     1     1      554            600        -6      812
##  6  2013     1     1      554            558        -4      740
##  7  2013     1     1      555            600        -5      913
##  8  2013     1     1      557            600        -3      709
##  9  2013     1     1      557            600        -3      838
## 10  2013     1     1      558            600        -2      753
## # … with 336,766 more rows, and 12 more variables: sched_arr_time <int>,
## #   arr_delay <dbl>, carrier <chr>, flight <int>, tailnum <chr>,
## #   origin <chr>, dest <chr>, air_time <dbl>, distance <dbl>, hour <dbl>,
## #   minute <dbl>, time_hour <dttm>
```
…
```r
final <- flights %>% 
  group_by(year, month, day) %>%
  select(arr_delay, dep_delay) %>%
  summarize(arr = mean(arr_delay, na.rm = TRUE),
            dep = mean(dep_delay, na.rm = TRUE)) %>%
  filter(arr > 30, dep > 30) %>% 
  arrange(desc(arr))
```

## A `dplyr` example


```
## # A tibble: 36 x 5
## # Groups:   year, month [10]
##     year month   day   arr   dep
##    <int> <int> <int> <dbl> <dbl>
##  1  2013     3     8  85.9  83.5
##  2  2013     6    13  63.8  45.8
##  3  2013     7    22  62.8  46.7
##  4  2013     5    23  62.0  51.1
##  5  2013     7    10  59.6  52.9
##  6  2013     9    12  58.9  50.0
##  7  2013     7     1  58.3  56.2
##  8  2013    12    17  55.9  40.7
##  9  2013     8     8  55.5  43.3
## 10  2013    12     5  51.7  52.3
## # … with 26 more rows
```
…
By default, `separate()` will split on any non-alphanumeric character. The `convert` argument will try to convert the resulting columns into a better type.

You can do the inverse operation with `unite()`, but it isn't all that useful.

## A tidying challenge


```r
tidyr::who
```

```
## # A tibble: 7,240 x 60
##    country iso2  iso3   year new_sp_m014 new_sp_m1524 new_sp_m2534
##    <chr>   <chr> <chr> <int>       <int>        <int>        <int>
##  1 Afghan… AF    AFG    1980          NA           NA           NA
##  2 Afghan… AF    AFG    1981          NA           NA           NA
##  3 Afghan… AF    AFG    1982          NA           NA           NA
##  4 Afghan… AF    AFG    1983          NA           NA           NA
##  5 Afghan… AF    AFG    1984          NA           NA           NA
##  6 Afghan… AF    AFG    1985          NA           NA           NA
##  7 Afghan… AF    AFG    1986          NA           NA           NA
##  8 Afghan… AF    AFG    1987          NA           NA           NA
##  9 Afghan… AF    AFG    1988          NA           NA           NA
## 10 Afghan… AF    AFG    1989          NA           NA           NA
## # … with 7,230 more rows, and 53 more variables: new_sp_m3544 <int>,
## #   new_sp_m4554 <int>, new_sp_m5564 <int>, new_sp_m65 <int>,
## #   new_sp_f014 <int>, new_sp_f1524 <int>, new_sp_f2534 <int>,
## #   new_sp_f3544 <int>, new_sp_f4554 <int>, new_sp_f5564 <int>,
## #   new_sp_f65 <int>, new_sn_m014 <int>, new_sn_m1524 <int>,
## #   new_sn_m2534 <int>, new_sn_m3544 <int>, new_sn_m4554 <int>,
## #   new_sn_m5564 <int>, new_sn_m65 <int>, new_sn_f014 <int>,
## #   new_sn_f1524 <int>, new_sn_f2534 <int>, new_sn_f3544 <int>,
## #   new_sn_f4554 <int>, new_sn_f5564 <int>, new_sn_f65 <int>,
…
----


```r
augment(fit) %>% as_tibble()
```

```
## # A tibble: 32 x 10
##    .rownames   mpg    wt .fitted .se.fit .resid   .hat .sigma .cooksd
##    <chr>     <dbl> <dbl>   <dbl>   <dbl>  <dbl>  <dbl>  <dbl>   <dbl>
##  1 Mazda RX4  21    2.62    23.3   0.634 -2.28  0.0433   3.07 1.33e-2
##  2 Mazda RX…  21    2.88    21.9   0.571 -0.920 0.0352   3.09 1.72e-3
##  3 Datsun 7…  22.8  2.32    24.9   0.736 -2.09  0.0584   3.07 1.54e-2
##  4 Hornet 4…  21.4  3.22    20.1   0.538  1.30  0.0313   3.09 3.02e-3
##  5 Hornet S…  18.7  3.44    18.9   0.553 -0.200 0.0329   3.10 7.60e-5
##  6 Valiant    18.1  3.46    18.8   0.555 -0.693 0.0332   3.10 9.21e-4
##  7 Duster 3…  14.3  3.57    18.2   0.573 -3.91  0.0354   3.01 3.13e-2
##  8 Merc 240D  24.4  3.19    20.2   0.539  4.16  0.0313   3.00 3.11e-2
##  9 Merc 230   22.8  3.15    20.5   0.540  2.35  0.0314   3.07 9.96e-3
## 10 Merc 280   19.2  3.44    18.9   0.553  0.300 0.0329   3.10 1.71e-4
## # … with 22 more rows, and 1 more variable: .std.resid <dbl>
```
…
----


```r
regressions %>% augment(fit)
```

```
## # A tibble: 32 x 12
## # Groups:   cyl [3]
##      cyl   mpg    wt  qsec  gear .fitted .se.fit .resid  .hat .sigma
##    <dbl> <dbl> <dbl> <dbl> <dbl>   <dbl>   <dbl>  <dbl> <dbl>  <dbl>
##  1     4  22.8  2.32  18.6     4    25.3    1.13 -2.47  0.135   3.16
##  2     4  24.4  3.19  20       4    20.8    1.92  3.55  0.386   2.78
##  3     4  22.8  3.15  22.9     4    25.8    2.80 -3.04  0.821   1.60
##  4     4  32.4  2.2   19.5     4    27.6    1.02  4.82  0.108   2.61
##  5     4  30.4  1.62  18.5     4    30.5    1.62 -0.137 0.273   3.34
##  6     4  33.9  1.84  19.9     4    31.1    1.73  2.82  0.313   3.04
##  7     4  21.5  2.46  20.0     3    23.4    2.36 -1.91  0.583   3.11
##  8     4  27.3  1.94  18.9     4    28.7    1.19 -1.40  0.148   3.28
##  9     4  26    2.14  16.7     5    26.6    2.12 -0.587 0.469   3.32
## 10     4  30.4  1.51  16.9     5    31.7    2.05 -1.32  0.441   3.26
## # … with 22 more rows, and 2 more variables: .cooksd <dbl>,
## #   .std.resid <dbl>
```
…
----


```r
kclust %>% augment(pts_matrix) %>% as_tibble()
```

```
## # A tibble: 300 x 3
##       x1     x2 .cluster
##    <dbl>  <dbl> <fct>   
##  1  4.43  0.542 1       
##  2  5.32 -0.941 1       
##  3  5.13 -1.58  1       
##  4  6.35 -1.60  1       
##  5  3.71 -3.41  1       
##  6  5.32 -0.772 1       
##  7  5.27  0.586 1       
##  8  5.40 -0.701 1       
##  9  5.46 -1.82  1       
## 10  7.15 -0.559 1       
## # … with 290 more rows
```
…
